{
    "swagger": "2.0",
    "info": {
        "title": "Documentation of your project API.",
        "contact": {
            "name": "api-getway"
        },
        "version": "1.0"
    },
    "host": "localhost:8080",
    "paths": {
        "/auth/login": {
            "post": {
                "description": "Авторизация пользователя",
                "consumes": [
                    "application/json"
                ],
                "produces": [
                    "application/json"
                ],
                "tags": [
                    "auth"
                ],
                "summary": "Login user",
                "parameters": [
                    {
                        "description": "Login Request",
                        "name": "body",
                        "in": "body",
                        "required": true,
                        "schema": {
                            "$ref": "#/definitions/handler.LoginRequest"
                        }
                    }
                ],
                "responses": {
                    "200": {
                        "description": "OK",
                        "schema": {
                            "$ref": "#/definitions/handler.AuthResponse"
                        }
                    }
                }
            }
        },
        "/auth/register": {
            "post": {
                "description": "Регистрация пользователя",
                "consumes": [
                    "application/json"
                ],
                "produces": [
                    "application/json"
                ],
                "tags": [
                    "auth"
                ],
                "summary": "Register user",
                "parameters": [
                    {
                        "description": "Register Request",
                        "name": "body",
                        "in": "body",
                        "required": true,
                        "schema": {
                            "$ref": "#/definitions/handler.RegisterRequest"
                        }
                    }
                ],
                "responses": {
                    "200": {
                        "description": "OK",
                        "schema": {
                            "$ref": "#/definitions/handler.RegisterResponse"
                        }
                    }
                }
            }
        },
        "/user/profile": {
            "get": {
                "security": [
                    {
                        "ApiKeyAuth": []
                    }
                ],
                "description": "Получение профиля пользователя.",
                "consumes": [
                    "application/json"
                ],
                "produces": [
                    "application/json"
                ],
                "tags": [
                    "user"
                ],
                "summary": "Profile user",
                "responses": {
                    "200": {
                        "description": "OK",
                        "schema": {
                            "$ref": "#/definitions/handler.UserOut"
                        }
                    }
                }
            }
        }
    },
    "definitions": {
        "handler.AuthResponse": {
            "type": "object",
            "properties": {
                "data": {
                    "$ref": "#/definitions/handler.LoginData"
                },
                "error_code": {
                    "type": "integer"
                },
                "success": {
                    "type": "boolean"
                }
            }
        },
        "handler.Data": {
            "type": "object",
            "properties": {
                "message": {
                    "type": "string"
                }
            }
        },
        "handler.LoginData": {
            "type": "object",
            "properties": {
                "access_token": {
                    "type": "string"
                },
                "message": {
                    "type": "string"
                },
                "refresh_token": {
                    "type": "string"
                }
            }
        },
        "handler.LoginRequest": {
            "type": "object",
            "properties": {
                "email": {
                    "type": "string"
                },
                "password": {
                    "type": "string"
                }
            }
        },
        "handler.RegisterRequest": {
            "type": "object",
            "properties": {
                "email": {
                    "type": "string"
                },
                "password": {
                    "type": "string"
                },
                "retype_password": {
                    "type": "string"
                }
            }
        },
        "handler.RegisterResponse": {
            "type": "object",
            "properties": {
                "data": {
                    "$ref": "#/definitions/handler.Data"
                },
                "error_code": {
                    "type": "integer"
                },
                "success": {
                    "type": "boolean"
                }
            }
        },
        "handler.User": {
            "type": "object",
            "properties": {
                "email": {
                    "type": "string"
                },
                "email_verified": {
                    "type": "boolean"
                },
                "id": {
                    "type": "integer"
                },
                "name": {
                    "type": "string"
                },
                "password": {
                    "type": "string"
                },
                "phone": {
                    "type": "string"
                },
                "phone_verified": {
                    "type": "boolean"
                },
                "role": {
                    "type": "integer"
                },
                "verified": {
                    "type": "boolean"
                }
            }
        },
        "handler.UserOut": {
            "type": "object",
            "properties": {
                "error_code": {
                    "type": "integer"
                },
                "user": {
                    "$ref": "#/definitions/handler.User"
                }
            }
        }
    },
    "securityDefinitions": {
        "ApiKeyAuth": {
            "type": "apiKey",
            "name": "Authorization",
            "in": "header"
        }
    }
}